<svg width="512" height="512" xmlns="http://www.w3.org/2000/svg">

 <g>
  <title>background</title>
  <rect fill="none" id="canvas_background" height="402" width="582" y="-1" x="-1"/>
 </g>
 <g>
  <title>Layer 1</title>
  <path stroke="null" fill="#000000" id="svg_2" d="m196.96917,354.882916c118.42021,-13.40781 53.96,-2.854586 78.04,-14.064586l121.79083,128.94167c10.14,10.15 23.63,15.74 37.98,15.74c0,0 0,0 0.01,0c14.35,0 27.83,-5.58 37.98,-15.72c0,0 0.01,0 0.01,-0.01c20.94,-20.95 20.93,-55.03 0,-75.96l-79.61,-79.6c-0.02,-0.02 -0.04,-0.04 -0.06,-0.07c-0.02,-0.02 -0.04,-0.04 -0.07,-0.06l-34.92,-35.813854c-2.985521,-30.33698 3.444479,-49.966146 3.444479,-77.146146c0,-95.19 -81.01542,-119.882603 -195.87021,-116.307183c-114.85479,3.57542 -27.815617,29.171869 -27.815617,124.351869c-0.01,95.19 -59.329692,160.12604 59.090518,146.71823zm113.19083,-18.542916c0.85,-0.66 1.68,-1.34 2.51,-2.02c0.55,-0.44 1.1,-0.88 1.64,-1.33c0.91,-0.76 1.81,-1.54 2.71,-2.32c0.44,-0.39 0.9,-0.76 1.34,-1.15c1.11,-0.98 2.2,-1.98 3.28,-2.99c0.22,-0.2 0.44,-0.4 0.66,-0.6c2.63,-2.47 5.18,-5.02 7.65,-7.65c0.08,-0.09 0.16,-0.18 0.24,-0.26c1.14,-1.22 2.27,-2.45 3.37,-3.7c0.23,-0.26 0.46,-0.54 0.69,-0.8c0.94,-1.08 1.88,-2.17 2.8,-3.27c0.3,-0.36 0.58,-0.73 0.88,-1.09c0.83,-1.02 1.66,-2.04 2.47,-3.08c0.06,-0.07 0.12,-0.14 0.17,-0.22l18.6,18.59l-30.7,30.71l-18.6,-18.6c0.09,-0.07 0.19,-0.15 0.29,-0.22zm139.99,109.81c-4.1,4.1 -9.55,6.35 -15.36,6.35c0,0 0,0 0,0c-5.8,0 -11.25,-2.26 -15.35,-6.36l-68.34,-68.34l30.7,-30.71l68.35,68.35c8.46,8.46 8.46,22.23 0,30.71zm-209.381974,-354.471254c132.95896,23.24021 103.981974,30.901254 103.981974,108.441254c0,24.72 -6.51,49.04 -18.81,70.31c-0.43,0.74 -0.86,1.48 -1.34,2.26c-0.74,1.22 -1.49,2.43 -2.27,3.63c-11.62,17.96 -27.32,33.22 -45.69,44.31c-0.73,0.44 -1.47,0.88 -2.2,1.31c-21.28,12.31 93.92386,7.1999 -70.32,18.82c-164.24386,11.6201 -60.005515,-8.55489 -60.307185,-140.63c-4.30167,-132.07511 -12.003749,-131.691464 120.955211,-108.451254z" class="st0"/>
  <text font-weight="normal" stroke="#000" transform="matrix(36.89378434952389,0,0,33.859215051881215,-7232.19090261366,-5306.406945429659) " xml:space="preserve" text-anchor="start" font-family="Oswald, sans-serif" font-size="12" id="svg_4" y="167.430092" x="197.752925" stroke-width="0" fill="#000000">D</text>
  <text stroke="null" transform="matrix(7.692311597596499,0,0,7.619277666846779,-1132.8400986192678,-809.9403002372545) " xml:space="preserve" text-anchor="start" font-family="Oswald, sans-serif" font-size="29" id="svg_5" y="145.264119" x="166.655529" stroke-opacity="null" stroke-width="0" fill="#000000">D</text>
 </g>
</svg>
